…
``` r
ttest_tidy <- function(n_obs = 30, mu, sigma = 5) {
  x <- rnorm(n = n_obs, mean = mu, sd = sigma)
  result <- t.test(x) %>% 
    broom::tidy() %>% 
    select(estimate, p.value)
}
result_mu_0 <- expand_grid(mu = 0, iter = 1:5000) %>% 
  mutate(test_result = map(.x = mu, ~ttest_tidy(mu = .x))) %>% 
  unnest(test_result)
result_mu_0
```

    ## # A tibble: 5,000 × 4
    ##       mu  iter estimate p.value
    ##    <dbl> <int>    <dbl>   <dbl>
    ##  1     0     1   0.408   0.640 
    ##  2     0     2   0.866   0.401 
    ##  3     0     3  -0.832   0.350 
    ##  4     0     4  -1.02    0.171 
    ##  5     0     5   1.66    0.0712
    ##  6     0     6   1.18    0.198 
    ##  7     0     7  -0.776   0.439 
    ##  8     0     8   0.0810  0.930 
    ##  9     0     9   0.944   0.184 
    ## 10     0    10  -0.245   0.774 
    ## # … with 4,990 more rows

Repeat the above for = {1,2,3,4,5,6}.

``` r
results_mus = expand_grid(mu = 1:6, iter = 1:5000) %>% 
  mutate(test_result = map(.x = mu, ~ttest_tidy(mu = .x))) %>% 
  unnest(test_result)
results_mus
```

    ## # A tibble: 30,000 × 4
    ##       mu  iter estimate p.value
    ##    <int> <int>    <dbl>   <dbl>
    ##  1     1     1   2.32    0.0158
    ##  2     1     2   0.0362  0.962 
    ##  3     1     3   0.788   0.400 
    ##  4     1     4   1.05    0.275 
    ##  5     1     5   1.59    0.174 
    ##  6     1     6   0.551   0.548 
    ##  7     1     7   1.58    0.103 
    ##  8     1     8   1.53    0.144 
    ##  9     1     9   0.625   0.526 
    ## 10     1    10   1.37    0.0265
    ## # … with 29,990 more rows
…
